Dual_Clock_FIFO.sim/sim_1/behav/xsim/simulate.log
Time resolution is 1 ps
Time = 1575000: Comparison Passed: wr_data = 10 and rd_data = 10
Time = 1715000: Comparison Passed: wr_data = 6a and rd_data = 6a
Time = 1855000: Comparison Passed: wr_data = a8 and rd_data = a8
Time = 1995000: Comparison Passed: wr_data = 2b and rd_data = 2b
Time = 2135000: Comparison Passed: wr_data = bf and rd_data = bf
Time = 2275000: Comparison Passed: wr_data = a1 and rd_data = a1
Time = 2415000: Comparison Passed: wr_data = 7e and rd_data = 7e
Time = 2555000: Comparison Passed: wr_data = cf and rd_data = cf
Time = 2695000: Comparison Passed: wr_data = 0b and rd_data = 0b
Time = 2835000: Comparison Passed: wr_data = 26 and rd_data = 26
Time = 2975000: Comparison Passed: wr_data = fb and rd_data = fb
Time = 3115000: Comparison Passed: wr_data = cb and rd_data = cb
Time = 3255000: Comparison Passed: wr_data = c8 and rd_data = c8
Time = 3395000: Comparison Passed: wr_data = 79 and rd_data = 79
Time = 3535000: Comparison Passed: wr_data = 9a and rd_data = 9a
Time = 3675000: Comparison Passed: wr_data = d3 and rd_data = d3
Time = 3815000: Comparison Passed: wr_data = 9f and rd_data = 9f
Time = 3955000: Comparison Passed: wr_data = 95 and rd_data = 95
Time = 4095000: Comparison Passed: wr_data = 9e and rd_data = 9e
Time = 4235000: Comparison Passed: wr_data = 67 and rd_data = 67
Time = 4375000: Comparison Passed: wr_data = 0e and rd_data = 0e
Time = 4515000: Comparison Passed: wr_data = 39 and rd_data = 39
Time = 4655000: Comparison Passed: wr_data = 3b and rd_data = 3b
Time = 4795000: Comparison Passed: wr_data = ae and rd_data = ae
Time = 4935000: Comparison Passed: wr_data = ce and rd_data = ce
Time = 5075000: Comparison Passed: wr_data = d9 and rd_data = d9
Time = 5215000: Comparison Passed: wr_data = 15 and rd_data = 15
Time = 5355000: Comparison Passed: wr_data = dd and rd_data = dd
Time = 5495000: Comparison Passed: wr_data = 12 and rd_data = 12
Time = 5635000: Comparison Passed: wr_data = 50 and rd_data = 50
$finish called at time : 5755 ns : File "E:/IISC/Dual_Clock_FIFO/Dual_Clock_FIFO.srcs/sim_1/new/tb_fifo_parallel.sv" Line 97
